<?xml version="1.0" encoding="UTF-8"?>
<svg width="54px" height="54px" viewBox="0 0 54 54" version="1.1" xmlns="http://www.w3.org/2000/svg" xmlns:xlink="http://www.w3.org/1999/xlink">
    <!-- Generator: Sketch 57.1 (83088) - https://sketch.com -->
    <title>Group 4 Copy 5</title>
    <desc>Created with Sketch.</desc>
    <g id="Products" stroke="none" stroke-width="1" fill="none" fill-rule="evenodd">
        <g id="Product-page-2" transform="translate(-538.000000, -1477.000000)">
            <g id="Group" transform="translate(111.000000, 1407.000000)">
                <g id="Group-4-Copy-5" transform="translate(428.000000, 71.000000)">
                    <circle id="Oval" stroke="#FFFFFF" stroke-width="2" fill="#FFFFFF" cx="26" cy="26" r="26"></circle>
                    <path d="M20.6580085,19 L29,19 C30.1045695,19 31,19.8954305 31,21 L31,29.3419915 C31,30.446561 30.1045695,31.3419915 29,31.3419915 C28.469567,31.3419915 27.9608592,31.1312778 27.5857864,30.7562051 L19.2437949,22.4142136 C18.4627463,21.633165 18.4627463,20.366835 19.2437949,19.5857864 C19.6188677,19.2107137 20.1275755,19 20.6580085,19 Z" id="Rectangle" fill="#208EA9" transform="translate(24.000000, 26.000000) rotate(-315.000000) translate(-24.000000, -26.000000) "></path>
                </g>
            </g>
        </g>
    </g>
</svg>